%YAML 1.1
%TAG !u! tag:unity3d.com,2011:
--- !u!114 &11400000
MonoBehaviour:
  m_ObjectHideFlags: 0
  m_CorrespondingSourceObject: {fileID: 0}
  m_PrefabInstance: {fileID: 0}
  m_PrefabAsset: {fileID: 0}
  m_GameObject: {fileID: 0}
  m_Enabled: 1
  m_EditorHideFlags: 0
  m_Script: {fileID: 11500000, guid: b42d18d35fb5f1147a3e821cddb673f6, type: 3}
  m_Name: MiniBossEnemy
  m_EditorClassIdentifier: 
  _name: Mini Boss
  _sprite: {fileID: 21300000, guid: f5d656529a3fc4040ad4bcba226cdd25, type: 3}
  _spriteColor: {r: 1, g: 1, b: 1, a: 1}
  _scoreValue: 200
  _difficultyValue: 31
  _health: 10
  _fireRate: 3
  _speed: 0.4
  _weaponMode: 2
